{"type": "spoon", "prob": 46.065697, "box": {"x": 0.415529, "y": 0.524956, "w": 0.258730, "h": 0.291976}}
{"type": "diningtable", "prob": 48.216518, "box": {"x": 0.494669, "y": 0.484932, "w": 0.805726, "h": 0.768053}}
{"type": "fork", "prob": 62.457485, "box": {"x": 0.416343, "y": 0.558779, "w": 0.249628, "h": 0.300360}}
{"type": "fork", "prob": 82.357124, "box": {"x": 0.478058, "y": 0.481180, "w": 0.097253, "h": 0.382846}}