1 0.732552 0.676852 0.192188 0.342593
3 0.690625 0.735648 0.242708 0.432407
4 0.770312 0.170370 0.167708 0.262963
3 0.397656 0.554167 0.384896 0.680556
0 0.337240 0.658796 0.182812 0.480556
2 0.310937 0.588426 0.184375 0.489815
