5 0.255208 0.157407 0.191667 0.312963
3 0.534375 0.279167 0.245833 0.436111
3 0.333073 0.654167 0.384896 0.676852
1 0.606250 0.235185 0.253125 0.170370
4 0.625521 0.566667 0.139583 0.244444
2 0.402604 0.747222 0.040625 0.505556
0 0.315365 0.764815 0.175521 0.470370
