1 0.741146 0.191204 0.150000 0.380556
5 0.705208 0.253704 0.237500 0.414815
4 0.640625 0.580556 0.142708 0.248148
0 0.464583 0.491667 0.314583 0.075926
2 0.441146 0.420833 0.308333 0.058333
3 0.384375 0.478704 0.379167 0.672222
