0 0.530729 0.759259 0.170833 0.481481
3 0.552344 0.742593 0.249479 0.438889
4 0.712240 0.361574 0.155729 0.245370
2 0.378906 0.562963 0.075521 0.551852
0 0.348438 0.565278 0.078125 0.549074
3 0.345833 0.352315 0.381250 0.673148
