{"type": "knife", "prob": 49.222301, "box": {"x": 0.450624, "y": 0.486349, "w": 0.053134, "h": 0.709858}}
{"type": "knife", "prob": 51.697014, "box": {"x": 0.403564, "y": 0.509825, "w": 0.100174, "h": 0.623047}}
{"type": "diningtable", "prob": 53.954727, "box": {"x": 0.511648, "y": 0.495714, "w": 0.798237, "h": 0.925026}}
{"type": "spoon", "prob": 91.500923, "box": {"x": 0.814457, "y": 0.507153, "w": 0.302773, "h": 0.530020}}
{"type": "fork", "prob": 92.115829, "box": {"x": 0.365144, "y": 0.491302, "w": 0.104486, "h": 0.602174}}
{"type": "knife", "prob": 92.519020, "box": {"x": 0.475205, "y": 0.485484, "w": 0.044873, "h": 0.633061}}
{"type": "cup", "prob": 99.798409, "box": {"x": 0.754930, "y": 0.140921, "w": 0.299038, "h": 0.260564}}